ago 13, 2020 9:37:08 PM hfl.argentina.ProtocolHTTP sendCommand
INFORMACIÓN: Iniciando conexión: 192.168.0.250
ago 13, 2020 9:37:08 PM hfl.argentina.ProtocolHTTP sendCommand
INFORMACIÓN: <?xml version="1.0" encoding="UTF-8" standalone="no"?>
<ConsultarVersion/>

ago 13, 2020 9:37:18 PM hfl.argentina.ProtocolHTTP sendCommand
GRAVE: connect timed out
